<?xml version="1.0" encoding="UTF-8" standalone="no"?>
<svg
   xmlns:dc="http://purl.org/dc/elements/1.1/"
   xmlns:cc="http://creativecommons.org/ns#"
   xmlns:rdf="http://www.w3.org/1999/02/22-rdf-syntax-ns#"
   xmlns:svg="http://www.w3.org/2000/svg"
   xmlns="http://www.w3.org/2000/svg"
   xmlns:sodipodi="http://sodipodi.sourceforge.net/DTD/sodipodi-0.dtd"
   xmlns:inkscape="http://www.inkscape.org/namespaces/inkscape"
   width="100%"
   height="100%"
   viewBox="0 0 3544 3544"
   version="1.1"
   xml:space="preserve"
   style="fill-rule:evenodd;clip-rule:evenodd;stroke-linecap:round;stroke-linejoin:round;stroke-miterlimit:1.5;"
   id="svg308"
   sodipodi:docname="vfrog.svg"
   inkscape:version="0.92.4 5da689c313, 2019-01-14"><metadata
   id="metadata314"><rdf:RDF><cc:Work
       rdf:about=""><dc:format>image/svg+xml</dc:format><dc:type
         rdf:resource="http://purl.org/dc/dcmitype/StillImage" /></cc:Work></rdf:RDF></metadata><defs
   id="defs312" /><sodipodi:namedview
   pagecolor="#ffffff"
   bordercolor="#666666"
   borderopacity="1"
   objecttolerance="10"
   gridtolerance="10"
   guidetolerance="10"
   inkscape:pageopacity="0"
   inkscape:pageshadow="2"
   inkscape:window-width="1920"
   inkscape:window-height="1034"
   id="namedview310"
   showgrid="false"
   inkscape:zoom="0.53273138"
   inkscape:cx="2001.0259"
   inkscape:cy="1700.4884"
   inkscape:window-x="0"
   inkscape:window-y="24"
   inkscape:window-maximized="1"
   inkscape:current-layer="svg308" />
    <g
   transform="matrix(0.63076764,0,0,0.78231037,378.012,409.07213)"
   id="g234"
   style="fill:#000000;stroke:#000000;stroke-opacity:1">
        <path
   d="m 2209.44,875.566 c 0,0 -592.83,1090.764 -592.83,1558.234 0,265.03 265.63,480.19 592.83,480.19 327.19,0 592.83,-215.16 592.83,-480.19 0,-467.47 -592.83,-1558.234 -592.83,-1558.234 z"
   style="fill:#000000;stroke:#000000;stroke-opacity:1"
   id="path232"
   inkscape:connector-curvature="0" />
    </g>
    <g
   transform="matrix(0.597715,0.531365,-0.664408,0.74737,2086.23,-1019.58)"
   id="g238"
   style="fill:#000000;stroke:#000000;stroke-opacity:1">
        <ellipse
   cx="2779.47"
   cy="2473.93"
   rx="177.849"
   ry="485.666"
   style="fill:#000000;stroke:#000000;stroke-opacity:1"
   id="ellipse236" />
    </g>
    <g
   transform="matrix(1.57353,0,0,-1.88238,562.553,3587.87)"
   id="g242"
   style="fill:#000000;stroke:#000000;stroke-opacity:1">
        <path
   d="M955.37,1140.06L581.431,1140.06L674.916,880.126L861.886,880.126L955.37,1140.06Z"
   style="fill:#000000;stroke:#000000;stroke-opacity:1"
   id="path240" />
    </g>
    <g
   transform="matrix(0.87925117,0,0,1,35.614499,360.934)"
   id="g246"
   style="fill:#000000;stroke:#000000;stroke-opacity:1">
        <path
   d="m 1894.78,767.9 c 46.67,-46.397 122.05,-46.397 168.73,0 62.21,61.844 146.74,145.871 210.38,209.133 23.97,23.837 37.46,56.257 37.46,90.067 0,33.81 -13.49,66.22 -37.46,90.06 -113.91,113.24 -294.75,293 -294.75,293 0,0 -193.44,-192.3 -306.21,-304.4 -20.94,-20.82 -32.71,-49.13 -32.71,-78.66 0,-29.53 11.77,-57.85 32.71,-78.666 64.66,-64.269 155.82,-154.895 221.85,-220.534 z"
   style="fill:#000000;stroke:#000000;stroke-opacity:1"
   id="path244"
   inkscape:connector-curvature="0" />
    </g>
    <path
   d="M1967.74,1771.65L2071.86,1811.09L2255.04,1514"
   style="fill:#000000;stroke:#000000;stroke-width:105.56px;stroke-opacity:1"
   id="path248" />
    <g
   transform="matrix(1,0,0,1,24,34)"
   id="g252"
   style="fill:#000000;stroke:#000000;stroke-opacity:1">
        <circle
   cx="2268.59"
   cy="1348.08"
   r="13.553"
   style="fill:#000000;stroke:#000000;stroke-width:25px;stroke-opacity:1"
   id="circle250" />
    </g>
    <g
   transform="matrix(1,0,0,1,99,67)"
   id="g256"
   style="fill:#000000;stroke:#000000;stroke-opacity:1">
        <circle
   cx="2268.59"
   cy="1348.08"
   r="13.553"
   style="fill:#000000;stroke:#000000;stroke-width:25px;stroke-opacity:1"
   id="circle254" />
    </g>
    <g
   transform="matrix(0.678941,0,0,0.678941,677.352,502.812)"
   id="g260"
   style="fill:#000000;stroke:#000000;stroke-opacity:1">
        <circle
   cx="2268.59"
   cy="1348.08"
   r="13.553"
   style="fill:#000000;stroke:#000000;stroke-width:36.82px;stroke-opacity:1"
   id="circle258" />
    </g>
    <g
   transform="matrix(0.473262,0,0,0.473262,1088.95,855.083)"
   id="g264"
   style="fill:#000000;stroke:#000000;stroke-opacity:1">
        
    </g>
    <circle
   cx="2497.6699"
   cy="1882.89"
   r="28.160999"
   style="fill:#000000;stroke:#000000;stroke-width:25px;stroke-opacity:1"
   id="circle266" />
    <circle
   cx="2399.22"
   cy="1882.89"
   r="20.667999"
   style="fill:#000000;stroke:#000000;stroke-width:25px;stroke-opacity:1"
   id="circle268" />
    <circle
   cx="2497.6699"
   cy="1982.42"
   r="24.475"
   style="fill:#000000;stroke:#000000;stroke-width:25px;stroke-opacity:1"
   id="circle270" />
    <g
   transform="matrix(-0.597715,0.531365,0.664408,0.74737,1441.65,-1019.58)"
   id="g274"
   style="fill:#000000;stroke:#000000;stroke-opacity:1">
        <ellipse
   cx="2779.47"
   cy="2473.93"
   rx="177.849"
   ry="485.666"
   style="fill:#000000;stroke:#000000;stroke-opacity:1"
   id="ellipse272" />
    </g>
    <g
   transform="matrix(-1,0,0,1,3527.88,0)"
   id="g278"
   style="fill:#000000;stroke:#000000;stroke-opacity:1">
        <path
   d="M 1946.1531,1773.5271 2071.86,1811.09 2255.04,1514"
   style="fill:#000000;stroke:#000000;stroke-width:105.55999756px;stroke-opacity:1"
   id="path276"
   inkscape:connector-curvature="0"
   sodipodi:nodetypes="ccc" />
    </g>
    <g
   transform="matrix(-1,0,0,1,3503.88,34)"
   id="g282"
   style="fill:#000000;stroke:#000000;stroke-opacity:1">
        <circle
   cx="2268.59"
   cy="1348.08"
   r="13.553"
   style="fill:#000000;stroke:#000000;stroke-width:25px;stroke-opacity:1"
   id="circle280" />
    </g>
    <g
   transform="matrix(-1,0,0,1,3428.88,67)"
   id="g286"
   style="fill:#000000;stroke:#000000;stroke-opacity:1">
        <circle
   cx="2268.59"
   cy="1348.08"
   r="13.553"
   style="fill:#000000;stroke:#000000;stroke-width:25px;stroke-opacity:1"
   id="circle284" />
    </g>
    <g
   transform="matrix(-0.678941,0,0,0.678941,2850.53,502.812)"
   id="g290"
   style="fill:#000000;stroke:#000000;stroke-opacity:1">
        <circle
   cx="2268.59"
   cy="1348.08"
   r="13.553"
   style="fill:#000000;stroke:#000000;stroke-width:36.82px;stroke-opacity:1"
   id="circle288" />
    </g>
    
    <g
   transform="matrix(-1,0,0,1,3563.88,-56)"
   id="g298"
   style="fill:#000000;stroke:#000000;stroke-opacity:1">
        <circle
   cx="2535.6699"
   cy="1936.89"
   r="28.160999"
   style="fill:#000000;stroke:#000000;stroke-width:25px;stroke-opacity:1"
   id="circle296" />
    </g>
    <g
   transform="matrix(-1,0,0,1,3563.88,-56)"
   id="g302"
   style="fill:#000000;stroke:#000000;stroke-opacity:1">
        <circle
   cx="2437.22"
   cy="1936.89"
   r="20.667999"
   style="fill:#000000;stroke:#000000;stroke-width:25px;stroke-opacity:1"
   id="circle300" />
    </g>
    <g
   transform="matrix(-1,0,0,1,3563.88,-56)"
   id="g306"
   style="fill:#000000;stroke:#000000;stroke-opacity:1">
        <circle
   cx="2535.6699"
   cy="2036.42"
   r="24.475"
   style="fill:#000000;stroke:#000000;stroke-width:25px;stroke-opacity:1"
   id="circle304" />
    </g>
<path
   style="fill:#000000;stroke:#000000;stroke-width:1px;stroke-linecap:butt;stroke-linejoin:miter;stroke-opacity:1"
   d="m 2118.7977,1834.2968 -66.1685,111.3367 -11.2627,-114.5043 z"
   id="path849"
   inkscape:connector-curvature="0"
   sodipodi:nodetypes="cccc" /><path
   style="fill:#000000;stroke:#000000;stroke-width:1px;stroke-linecap:butt;stroke-linejoin:miter;stroke-opacity:1"
   d="m 1415.3475,1843.9632 83.5317,98.8546 35.6653,-123.8898 z"
   id="path851"
   inkscape:connector-curvature="0"
   sodipodi:nodetypes="cccc" /></svg>